Lecture 19: Multiple Independent Populations
…
---

SSTrt = `\(\sum_{i=1}^t \sum_{j=1}^{n_i} (\bar{y}_{i\cdot} - \bar{y}_{\cdot\cdot})^2\)`:

.pull-left[

```r
## group means
(group_means <- rat_poison %>% 
  group_by(treatment) %>% 
  mutate(ybar_idot = mean(coagulation_time)))
```

```
# A tibble: 24 x 3
# Groups:   treatment [4]
   treatment coagulation_time ybar_idot
       <int>            <dbl>     <dbl>
 1         1               62        61
 2         1               60        61
 3         1               63        61
 4         1               59        61
 5         2               63        66
 6         2               67        66
 7         2               71        66
 8         2               64        66
 9         2               65        66
10         2               66        66
# … with 14 more rows
```
…
---

SSTot = `\(\sum_{i=1}^t \sum_{j=1}^{n_i} (y_{ij} - \bar{y}_{\cdot\cdot})^2\)`:

.pull-left[

```r
rat_poison %>% 
  mutate(obs_minus_average = coagulation_time - mean(coagulation_time),
         squares = obs_minus_average^2)
```

```
# A tibble: 24 x 4
   treatment coagulation_time obs_minus_average squares
       <int>            <dbl>             <dbl>   <dbl>
 1         1               62                -2       4
 2         1               60                -4      16
 3         1               63                -1       1
 4         1               59                -5      25
 5         2               63                -1       1
 6         2               67                 3       9
 7         2               71                 7      49
 8         2               64                 0       0
 9         2               65                 1       1
10         2               66                 2       4
# … with 14 more rows
```
…
