Homework 0
…
Question 4

To find the mean rate by state we first create a new varible called rate (using mutate), then group_by state before summarizing the data. We use arrange to find the smallest and largest means.

measles %>% 
  mutate(rate = count / population) %>% 
  group_by(state) %>% 
  summarize(mean = mean(rate)) %>% 
  arrange(mean)

## # A tibble: 51 x 2
##    state           mean
##    <chr>          <dbl>
##  1 Mississippi 0.000249
##  2 Louisiana   0.000341
##  3 Georgia     0.000621
##  4 Oklahoma    0.000651
##  5 Missouri    0.000738
##  6 Nevada      0.000750
##  7 Florida     0.000766
##  8 Nebraska    0.000869
##  9 Alabama     0.000927
## 10 Arkansas    0.000937
## #  with 41 more rows

The state with the overall lowest mean rate is Mississippi.

measles %>% 
  mutate(rate = count / population) %>% 
  group_by(state) %>% 
  summarize(mean = mean(rate)) %>% 
  arrange(desc(mean))

## # A tibble: 51 x 2
##    state            mean
##    <chr>           <dbl>
##  1 Wisconsin     0.00444
##  2 Vermont       0.00379
##  3 Utah          0.00343
##  4 Montana       0.00310
##  5 New Jersey    0.00261
##  6 Connecticut   0.00246
##  7 Colorado      0.00244
##  8 Arizona       0.00242
##  9 Michigan      0.00236
## 10 Massachusetts 0.00234
## #  with 41 more rows
…
Question 5

Data is missing for Alaska and Hawaii, so we remove them. The we create the rate variable, group_by year, and summarize to get the mean rate per year. The result is saved to an object called yearly_mean_rate.

yearly_mean_rate <- measles %>% 
  filter(state != "Alaska", state != "Hawaii") %>% 
  mutate(rate = count / population) %>% 
  group_by(year) %>% 
  summarize(mean = mean(rate))

To actually show the result:

yearly_mean_rate

## # A tibble: 76 x 2
##     year    mean
##    <dbl>   <dbl>
##  1  1928 0.00348
##  2  1929 0.00247
##  3  1930 0.00298
##  4  1931 0.00315
##  5  1932 0.00294
##  6  1933 0.00239
##  7  1934 0.00622
##  8  1935 0.00511
##  9  1936 0.00255
## 10  1937 0.00228
## #  with 66 more rows
…
