Lecture 22: Linear Regression
…
.pull-left[
Sir Francis Galton (1822-1911) was interested in how children resemble their parents. One simple measure of this is height. So Galton (actually his disciple, Karl Pearson) measured the heights of father son pairs (in inches) at maturity. In the actual study, 1078 pairs were measured. For convenience, we will use a small subsample of `\(n = 50\)`.

As always, we need to address the assumptions before we can consider the results.
]

.pull-right[

```r
father_son_heights
```

```
# A tibble: 50 x 2
   fheight sheight
     <dbl>   <dbl>
 1    71.0    69.1
 2    68.5    70.8
 3    64.8    67.5
 4    67.4    66.8
 5    67.1    72.0
 6    69.9    69.9
 7    71.4    69.5
 8    68.6    72.0
 9    73.5    76.1
10    63.9    70.9
# … with 40 more rows
```
…
From this plot, it seems like a linear relationship (i.e. a straight line) with some random error might not be a bad model! 

---

We check assumptions 2-4 using residuals (since these all are about the residuals!). The easiest way to get these is to fit the model, then use the `broom` package to get the model summaries. 

```r
library(broom)
lin_mod <- lm(data = father_son_heights, sheight ~ fheight)

augment(lin_mod)
```

```
# A tibble: 50 x 9
   sheight fheight .fitted .se.fit .resid   .hat .sigma  .cooksd .std.resid
     <dbl>   <dbl>   <dbl>   <dbl>  <dbl>  <dbl>  <dbl>    <dbl>      <dbl>
 1    69.1    71.0    70.2   0.457 -1.08  0.0444   2.19 0.00607      -0.511
 2    70.8    68.5    68.9   0.311  1.96  0.0206   2.17 0.00877       0.913
 3    67.5    64.8    66.9   0.480  0.533 0.0489   2.19 0.00163       0.252
 4    66.8    67.4    68.3   0.315 -1.49  0.0210   2.18 0.00517      -0.694
 5    72.0    67.1    68.1   0.324  3.82  0.0224   2.12 0.0364        1.78 
 6    69.9    69.9    69.6   0.371  0.346 0.0292   2.19 0.000394      0.162
 7    69.5    71.4    70.4   0.488 -0.913 0.0505   2.19 0.00496      -0.432
 8    72.0    68.6    68.9   0.313  3.12  0.0209   2.14 0.0225        1.45 
 9    76.1    73.5    71.5   0.690  4.61  0.101    2.07 0.283         2.24 
10    70.9    63.9    66.5   0.560  4.42  0.0667   2.09 0.158         2.11 
# … with 40 more rows
```
…
